user_id,recipe_id,rating
157425.0,371412.0,5.0
200339.0,82486.0,5.0
1108707.0,93056.0,4.0
926775.0,406845.0,5.0
1223851.0,106499.0,5.0
305531.0,179839.0,5.0
1478685.0,412447.0,5.0
173579.0,115755.0,5.0
227652.0,177017.0,5.0
593159.0,287223.0,5.0
1157312.0,2496.0,5.0
505967.0,409671.0,5.0
227978.0,325177.0,5.0
28177.0,269624.0,5.0
424680.0,334898.0,5.0
1309711.0,19678.0,5.0
424680.0,402528.0,5.0
30651.0,204901.0,5.0
227652.0,55110.0,5.0